<?xml version="1.0" standalone="no"?>
<!DOCTYPE svg PUBLIC "-//W3C//DTD SVG 20010904//EN"
 "http://www.w3.org/TR/2001/REC-SVG-20010904/DTD/svg10.dtd">
<svg version="1.0" xmlns="http://www.w3.org/2000/svg"
 width="300.000000pt" height="300.000000pt" viewBox="0 0 300.000000 300.000000"
 preserveAspectRatio="xMidYMid meet">
<metadata>
Created by potrace 1.11, written by Peter Selinger 2001-2013
</metadata>
<g transform="translate(0.000000,300.000000) scale(0.100000,-0.100000)"
fill="#000000" stroke="none">
<path d="M1265 2949 c-308 -50 -567 -182 -789 -402 -206 -205 -329 -417 -400
-691 -32 -122 -40 -196 -41 -351 0 -147 10 -237 42 -360 150 -592 665 -1038
1263 -1092 351 -32 683 51 962 240 116 79 122 83 227 187 94 94 194 228 257
348 38 72 91 194 99 231 3 9 14 52 25 95 22 81 24 94 37 201 8 75 9 231 0 311
-54 496 -358 929 -814 1158 -48 24 -69 32 -178 71 -199 70 -463 91 -690 54z"/>
</g>
</svg>
